Predicting Two-Stories Prices in NY
…
We will now save the data frame obtained to csv:

write.csv(NYsales_c, "NYsales_cleaned.csv", row.names = FALSE)

Lets check the classification reference for the filtered data set:

NYsales_c %>%
    count(building_class_at_time_of_sale, sort = TRUE)

## # A tibble: 117 x 2
##    building_class_at_time_of_sale     n
##    <chr>                          <int>
##  1 A1                              4983
##  2 A5                              4523
##  3 B2                              2740
##  4 B1                              2575
##  5 B3                              2258
##  6 A2                              1938
##  7 C0                              1913
##  8 B9                               909
##  9 A9                               873
## 10 C3                               382
## # ... with 107 more rows
…
